﻿Ergebnisse "Deutsche Meisterschaft" im Bankdrücken, 7. Dezember 2008 / Schwerin
Klasse                                                                            Platzierung   Name                         Ort              Körpergew.   1. Versuch   2. Versuch   3. Versuch   Gesamtpkt.
Frauen
Junioren bis 23 Jahre                                                             1. Platz             Franziska Füchsel     Berlin           61,0 kg      50,0 kg      55,0 kg      60,0 kg      96,63
Aktive bis 39 Jahre                                                               1. Platz             Sybille Kühnöhl       Beeskow          61,0 kg      80,0 kg      85,0 kg      87,5 kg      153,73
                                                                                  2. Platz             Diana Bisping         Lüneburg         62,0 kg      57,5 kg      62,5 kg      65,0 kg      108,50
                                                                                  3. Platz             Fiona Hauptmann       Lüneburg         69,0 kg      60,0 kg      62,5 kg      65,0 kg      101,12
                                                                                  4. Platz             Kessryn Kober         Genthin          57,0 kg      45,0 kg      50,0 kg      52,5 kg      98,12
Masters I bis 49 Jahre                                                            1. Platz             Maria Delgado         Schwelm          65,0 kg      75,0 kg      80,0 kg      82,5 kg      138,68       DR
                                                                                  2. Platz             Viola Heuthling       Genthin          68,0 kg      70,0 kg      75,0 kg      80,0 kg      130,48
Männer
Junioren bis 23 Jahre
Leichtgewicht bis 75 kg                                                           1. Platz             Denny Scheffler       Genthin          70,0         kg           115,0        kg           120,0        kg   127,5   kg   57,50
                                                                                  2. Platz             Jeffrey Kemeny        Lüneburg         73,0         kg           100,0        kg           112,5        kg   115,0   kg   42,00
                                                                                  3. Platz             Frieder Bergmann      Lüneburg         64,0         kg           100,0        kg           110,0        kg   110,0   kg   36,00
                                                                                  4. Platz             Steffen Burk          Hohen Wangelin   61,0         kg           72,5         kg           77,5         kg   82,5    kg   21,50
                                                                                  5. Platz             Christopher Willems   Hohen Wangelin   63,5         kg           72,5         kg           77,5         kg   82,5    kg   19,00
Mittelgewicht bis 95 kg                                                           1. Platz             Mathias Wendt         Hohen Wangelin   90,0         kg           170,0        kg           180,0        kg   185,0   kg   90,00
                                                                                  1. Platz             Kevin Banz            Lüneburg         82,5         kg           155,0        kg           165,0        kg   172,5   kg   90,00
                                                                                  2. Platz             Julian Rose           Heide            78,0         kg           142,5        kg           147,5        kg   155,0   kg   78,00
                                                                                  3. Platz             Lars Jenjahn          Neubrandenburg   94,0         kg           145,0        kg           150,0        kg   155,0   kg   56,00
                                                                                  4. Platz             Denny Linsdorf        Grieben          79,5         kg           125,0        kg           130,0        kg   135,0   kg   50,50
                                                                                  5. Platz             Thomas Kusche         Mönchenfrei      85,0         kg           125,0        kg           125,0        kg   130,0   kg   45,00
Schwergewicht bis 115 kg                                                          1. Platz             Nando Stoll           Rehna            95,5         kg           170,0        kg           180,0        kg   187,5   kg   92,00   DR
                                                                                  2. Platz             Timo Bühnert          Lüneburg         100,0        kg           155,0        kg           165,0        kg   170,0   kg   70,00
                                                                                  3. Platz             Martin Kries          Rostock          100,0        kg           160,0        kg           167,5        kg   167,5   kg   60,00
                                                                                  4. Platz             Robert Martin         Mönchenfrei      101,0        kg           145,0        kg           150,0        kg   155,0   kg   54,00
                                                                                  5. Platz             Michael Blumstein     Lüneburg         106,5        kg           145,0        kg           155,0        kg   160,0   kg   53,50
                                                                                  6. Platz             Stefan Schubert       Mönchenfrei      98,5         kg           140,0        kg           145,0        kg   147,5   kg   46,50
                                                                                  7. Platz             Eugen Weber           Genthin          100,0        kg           90,0         kg           100,0        kg   105,0   kg   0,00
Superschwergewicht über 115 kg                                                    1. Platz             Andy Teitge           Seehausen        115,5        kg           160,0        kg           167,5        kg   180,0   kg   64,50   DR
                                                                                  2. Platz             Tim Büchtmann         Lüneburg         115,5        kg           145,0        kg           155,0        kg   162,5   kg   47,00
Aktive bis 39 Jahre
Leichtgewicht bis 75 kg                                                           1. Platz             Andreas Pöhls         Brüel            75,0         kg           157,5        kg           162,5        kg   167,5   kg   92,50   DR
                                                                                  2. Platz             Ingmar Schmücker      Neubrandenburg   74,0         kg           127,5        kg           132,5        kg   137,5   kg   63,50
                                                                                  3. Platz             Sebastian Becker      Chemnitz         74,0         kg           125,0        kg           130,0        kg   130,0   kg   51,00
                                                                                  4. Platz             Stefan Podojil        Stendal          60,0         kg           80,0         kg           85,0         kg   90,0    kg   30,00

Mittelgewicht bis 95 kg          1. Platz   Mathias Nagler        Grieben          88,0    kg   205,0   kg   210,0   kg   215,0   kg   127,00   DR
                                 2. Platz   Andre Hoff            Seehausen        93,5    kg   205,0   kg   215,0   kg   215,0   kg   111,50
                                 3. Platz   David Micek           Potsdam          95,0    kg   202,5   kg   205,0   kg   205,0   kg   107,50
                                 4. Platz   Nico Schmidt          Genthin          91,5    kg   185,0   kg   190,0   kg   195,0   kg   98,50
                                 5. Platz   Viktor Babenko        Flensburg        90,0    kg   160,0   kg   170,0   kg   175,0   kg   80,00
                                 6. Platz   Marcel Marossow       Bad Doberan      89,0    kg   150,0   kg   157,5   kg   162,5   kg   68,50
                                 7. Platz   Thorsten Maltzen      Bielefeld        95,0    kg   155,0   kg   165,0   kg   165,0   kg   60,00
                                 7. Platz   Michael Reis          Genthin          82,5    kg   127,5   kg   135,0   kg   142,5   kg   60,00
                                 8. Platz   Marcel Gursch         Genthin          79,0    kg   125,0   kg   130,0   kg   135,0   kg   56,00
                                 9. Platz   Sven Stelter          Genthin          87,5    kg   130     kg   135,0   kg   140,0   kg   52,50
Schwergewicht bis 115 kg         1. Platz   Stefan Fecken         Parchim          114,0   kg   210,0   kg   220,0   kg   230,0   kg   116,00   DR
                                 2. Platz   Lars Göhler           Mönchenfrei      109,0   kg   180,0   kg   185,0   kg   190,0   kg   81,00
                                 3. Platz   Rami Mansour          Ratzeburg        102,5   kg   170,0   kg   180,0   kg   180,0   kg   77,50
                                 4. Platz   Dirk Thalheim         Mönchenfrei      106,0   kg   160,0   kg   167,5   kg   175,0   kg   69,00
                                 5. Platz   Mathias Beyer         Ratzeburg        102,0   kg   155,0   kg   155,0   kg   165,0   kg   63,00
                                 6. Platz   Manuel Halser         Mönchenfrei      98,0    kg   147,5   kg   155,0   kg   160,0   kg   57,00
                                 7. Platz   Torsten Schüler       Hamburg          108,0   kg   130,0   kg   137,5   kg   145,0   kg   37,00
Superschwergewicht über 115 kg   1. Platz   Mirko Jentzsch        Bielefeld        116,0   kg   210,0   kg   215,0   kg   220,0   kg   99,00
                                 2. Platz   Kai - Uwe Werner      Neubrandenburg   125,0   kg   195,0   kg   202,5   kg   207,5   kg   82,50
                                 3. Platz   Patrick Werner        Berlin           115,5   kg   180,0   kg   190,0   kg   200,0   kg   74,50
                                 4. Platz   Danny Schmalz         Neubrandenburg   125,5   kg   195,0   kg   202,5   kg   202,5   kg   69,50
                                 5. Platz   Jörn Pistorius        Hannover         116,5   kg   172,5   kg   180,0   kg   185,0   kg   68,50
                                 6. Platz   Andreas Kersten       Berlin           127,0   kg   170,0   kg   180,0   kg   190,0   kg   53,00
                                 7. Platz   Marko Lehmann         Grieben          118,5   kg   150,0   kg   160,0   kg   170,0   kg   41,50
Masters I bis 49 Jahre
Mittelgewicht bis 95 kg          1. Platz   Axel Gent             Grieben          88,0    kg   160,0   kg   165,0   kg   167,5   kg   79,50
                                 2. Platz   Fred Pommerenke       Anklam           88,5    kg   137,5   kg   145,0   kg   150,0   kg   61,50
                                 3. Platz   Rene Kupfernagel      Genthin          81,5    kg   135,0   kg   140,0   kg   145,0   kg   58,50
Schwergewicht bis 115 kg         1. Platz   Frank Leiyng          Nauen            109,0   kg   200,0   kg   207,5   kg   212,5   kg   103,50   DR
                                 2. Platz   Frank Hartmann        Ingolstadt       98,5    kg   180,0   kg   185,0   kg   190,0   kg   91,50
Superschwergewicht über 115 kg   1. Platz   Uwe Böser             Schwerin         115,5   kg   180,0   kg   195,0   kg   205,0   kg   79,50    DR
                                 2. Platz   Lutz Dürre            Genthin          120,5   kg   130,0   kg   140,0   kg   150,0   kg   29,50
Masters II bis 59 Jahre
Leichtgewicht bis 75 kg          1. Platz   Norbert Rösel         Heide            74,5    kg   115,0   kg   120,0   kg   122,5   kg   48,00    DR
Mittelgewicht bis 95 kg          1. Platz   Kurt Schoula          Pinneberg        95,0    kg   160,0   kg   165,0   kg   170,0   kg   70,00
Schwergewicht bis 115 kg         1. Platz   Bernd Mielke          Gadebusch        111,0   kg   180,0   kg   190,0   kg   200,0   kg   89,00
                                 2. Platz   Karl - Heinz Wendel   Genthin          113,0   kg   115,0   kg   125,0   kg   130,0   kg   12,00

Superschwergewicht über 115 kg   1. Platz      Walter Kurda          Köln           116,0 kg   185,0 kg   195,0 kg   202,5 kg   86,50
Masters III ab 60 Jahre
Mittelgewicht bis 95 kg          1. Platz      Gert Rickershenrich   Fichtenwalde   88,0 kg    90,0 kg    97,5 kg    102,5 kg   9,50
Gesamtsieger:                    Frauen        Sybille Kühnöhl       Beeskow        153,73
                                 Junioren      Kevin Banz            Lüneburg       177,50
                                 Aktive        Mathias Nagler        Grieben        211,34
                                 Masters I     Frank Leiyng          Nauen          199,79
                                 Masters II    Walter Kurda          Köln           220,47
                                 Masters III   Gert Rickershenrich   Fichtenwalde   135,13
