Division,WeightClassKg,Place,Name,Team,BodyweightKg,Best3SquatKg,Best3BenchKg,Best3DeadliftKg,TotalKg,Equipment,Event,Sex
Boys,51.71,1,Jesse Ramirez #2,San Angelo Lake View,51.17,136.08,77.11,145.15,358.34,Single-ply,SBD,M
Boys,51.71,2,Damian Loza,Roscoe,50.08,136.08,61.23,142.88,340.19,Single-ply,SBD,M
Boys,51.71,3,Jaxon Sullivan,Clyde,44.63,108.86,56.7,122.47,288.03,Single-ply,SBD,M
Boys,51.71,4,Cameron Calame,Graham,51.44,92.99,65.77,99.79,258.55,Single-ply,SBD,M
Boys,51.71,5,Chris Deleon,Roscoe,51.44,83.91,43.09,102.06,229.06,Single-ply,SBD,M
Boys,55.79,6,Cory Qualls,Rotan,51.89,54.43,47.63,108.86,210.92,Single-ply,SBD,M
Boys,51.71,DQ,Brandon Mireles,San Angelo Lake View,51.71,,,,,Single-ply,SBD,M
Boys,51.71,DQ,Dusty Salmon,Coahoma,51.71,,,,,Single-ply,SBD,M
Boys,51.71,DQ,Hunter Lowery,Coahoma,51.71,,,,,Single-ply,SBD,M
Boys,51.71,DQ,Matt Hernandez,San Angelo Lake View,51.71,,,,,Single-ply,SBD,M
Boys,55.79,1,Jacob Villalpando,Sweetwater,55.79,151.95,86.18,163.29,401.43,Single-ply,SBD,M
Boys,55.79,2,Bryce DeVore,Hawley,55.61,156.49,70.31,156.49,383.29,Single-ply,SBD,M
Boys,55.79,3,Austin Carrasco,Roscoe,55.7,136.08,74.84,149.69,360.61,Single-ply,SBD,M
Boys,59.87,4,Tyler Pacheco,San Angelo Lake View,55.97,136.08,65.77,133.81,335.66,Single-ply,SBD,M
Boys,55.79,5,Terrence Sims,Abilene Cooper,55.52,115.67,79.38,127.01,322.05,Single-ply,SBD,M
Boys,55.79,DQ,John Seaborn,Clyde,55.79,,,,,Single-ply,SBD,M
Boys,55.79,DQ,Josh Tucker,Hamlin,54.43,,,,,Single-ply,SBD,M
Boys,67.13,1,Jose Pineda,San Angelo Central,60.06,176.9,90.72,176.9,444.52,Single-ply,SBD,M
Boys,67.13,2,Jake Hernandez,Big Spring,60.06,167.83,95.25,174.63,437.72,Single-ply,SBD,M
Boys,67.13,3,Colton Pack,Hawley,60.06,181.44,77.11,167.83,426.38,Single-ply,SBD,M
Boys,59.87,4,Ben Merworth,Big Spring,59.69,142.88,102.06,151.95,396.89,Single-ply,SBD,M
Boys,59.87,5,Zach Hernandez,Big Spring,59.06,158.76,79.38,156.49,394.63,Single-ply,SBD,M
Boys,59.87,6,Dakota Brewster,Clyde,58.97,151.95,79.38,156.49,387.82,Single-ply,SBD,M
Boys,59.87,7,Daniel Medina,Stamford,59.87,151.95,81.65,154.22,387.82,Single-ply,SBD,M
Boys,67.13,8,Ryan Franks,Tuscola Jim Ned,60.06,145.15,70.31,145.15,360.61,Single-ply,SBD,M
Boys,59.87,9,John Hernandez,San Angelo Lake View,59.06,124.74,74.84,158.76,358.34,Single-ply,SBD,M
Boys,67.13,10,Kerry Sims,Abilene Cooper,60.06,138.35,74.84,145.15,358.34,Single-ply,SBD,M
Boys,59.87,11,Donald Baker,Sweetwater,59.51,136.08,74.84,131.54,342.46,Single-ply,SBD,M
Boys,59.87,12,Emilio Morales,Roscoe,56.97,158.76,52.16,124.74,335.66,Single-ply,SBD,M
Boys,59.87,13,Julio Dominguez,San Angelo Lake View,58.6,108.86,63.5,163.29,335.66,Single-ply,SBD,M
Boys,59.87,14,Juan Ramirez,San Angelo Lake View,59.87,108.86,74.84,149.69,333.39,Single-ply,SBD,M
Boys,59.87,15,Nathaniel Escobedo,Stamford,58.6,127.01,68.04,133.81,328.85,Single-ply,SBD,M
Boys,59.87,16,Josh Cady,San Angelo Lake View,58.69,108.86,79.38,129.27,317.51,Single-ply,SBD,M
Boys,59.87,17,Damian Cate,Coahoma,57.79,97.52,52.16,88.45,238.14,Single-ply,SBD,M
Boys,59.87,DQ,Luke Humble,Coahoma,59.87,,,,,Single-ply,SBD,M
Boys,59.87,DQ,Chris Moreno,Early,59.87,,,,,Single-ply,SBD,M
Boys,59.87,DQ,Mj Castillo,Coahoma,57.33,,,,,Single-ply,SBD,M
Boys,59.87,DQ,Victor Muro,San Angelo Lake View,59.33,124.74,,,,Single-ply,SBD,M
Boys,59.87,DQ,Jeff Reese,Tuscola Jim Ned,58.24,120.2,,,,Single-ply,SBD,M
Boys,59.87,DQ,Nick Nemir,Sweetwater,59.87,122.47,,,,Single-ply,SBD,M
Boys,74.84,1,Will Graham,Clyde,67.31,185.97,127.01,206.38,519.36,Single-ply,SBD,M
Boys,67.13,2,Brett DeVore,Hawley,65.95,204.12,99.79,208.65,512.56,Single-ply,SBD,M
Boys,67.13,3,Justin Coker,Coahoma,66.32,188.24,104.33,188.24,480.81,Single-ply,SBD,M
Boys,67.13,4,Tj Bruns,Abilene Cooper,66.86,183.7,111.13,147.42,442.25,Single-ply,SBD,M
Boys,67.13,5,Ryan Campos,Abilene,64.95,174.63,95.25,165.56,435.45,Single-ply,SBD,M
Boys,67.13,6,Jose Rangel,Roscoe,65.77,158.76,102.06,151.95,412.77,Single-ply,SBD,M
Boys,67.13,7,Caleb Miller,Clyde,67.13,158.76,102.06,151.95,412.77,Single-ply,SBD,M
Boys,67.13,8,Adrian Lopez #2,Sweetwater,66.13,147.42,104.33,158.76,410.5,Single-ply,SBD,M
Boys,67.13,9,Hunter Self,Abilene,65.5,154.22,90.72,163.29,408.23,Single-ply,SBD,M
Boys,67.13,10,Jonathan Robinson,San Angelo Lake View,66.86,142.88,86.18,167.83,396.89,Single-ply,SBD,M
Boys,67.13,11,David Castleberry,Clyde,63.5,129.27,92.99,158.76,381.02,Single-ply,SBD,M
Boys,67.13,12,Hunter Sykes,San Angelo Lake View,61.87,129.27,77.11,145.15,351.53,Single-ply,SBD,M
Boys,67.13,13,Chase McKissick,Tuscola Jim Ned,61.96,136.08,72.57,142.88,351.53,Single-ply,SBD,M
Boys,67.13,14,Jacob Howeth,Tuscola Jim Ned,63.05,142.88,70.31,136.08,349.27,Single-ply,SBD,M
Boys,67.13,15,Jonathan Howeth,Tuscola Jim Ned,62.23,136.08,72.57,136.08,344.73,Single-ply,SBD,M
Boys,67.13,16,Isaac Stern,Post,65.86,122.47,70.31,147.42,340.19,Single-ply,SBD,M
Boys,67.13,17,Brad Deel,Clyde,64.95,113.4,86.18,124.74,324.32,Single-ply,SBD,M
Boys,67.13,18,Cody Dean,Post,65.86,90.72,108.86,120.2,319.78,Single-ply,SBD,M
Boys,67.13,19,Caden Dean,Post,61.78,124.74,68.04,102.06,294.84,Single-ply,SBD,M
Boys,67.13,20,Seth Babb,Post,65.59,97.52,70.31,117.93,285.76,Single-ply,SBD,M
Boys,67.13,DQ,Kolton Griffith,Merkel,67.13,,,,,Single-ply,SBD,M
Boys,67.13,DQ,Coeung Sei,Snyder,67.13,,,,,Single-ply,SBD,M
Boys,67.13,DQ,Mario Gonzales,Stamford,67.13,,,,,Single-ply,SBD,M
Boys,67.13,DQ,Justin Miller,Stamford,67.13,,,,,Single-ply,SBD,M
Boys,67.13,DQ,Mark Hernandez #4,Hamlin,67.13,,,,,Single-ply,SBD,M
Boys,67.13,DQ,Tristan Bradshear,Hamlin,67.13,,,,,Single-ply,SBD,M
Boys,74.84,DQ,Devonte Carson,San Angelo Lake View,67.31,,,,,Single-ply,SBD,M
Boys,74.84,1,Miguel Rangel,Roscoe,74.03,272.16,154.22,217.72,644.1,Single-ply,SBD,M
Boys,82.1,2,Sam Nemir,Sweetwater,74.89,213.19,115.67,199.58,528.44,Single-ply,SBD,M
Boys,74.84,3,Earl Miller,Hawley,73.21,188.24,106.59,192.78,487.61,Single-ply,SBD,M
Boys,74.84,4,Karrson Strohl,Clyde,70.22,172.37,115.67,188.24,476.27,Single-ply,SBD,M
Boys,74.84,5,Will Cawley,Graham,73.12,181.44,108.86,181.44,471.74,Single-ply,SBD,M
Boys,74.84,6,JD Smith,San Angelo Lake View,68.31,181.44,72.57,210.92,464.93,Single-ply,SBD,M
Boys,74.84,7,Ryan Linebaugh,Sweetwater,70.76,170.1,104.33,190.51,464.93,Single-ply,SBD,M
Boys,74.84,8,John Flores,Big Spring,70.4,179.17,104.33,174.63,458.13,Single-ply,SBD,M
Boys,74.84,9,Jonathan Davidson,Clyde,71.67,174.63,102.06,163.29,439.98,Single-ply,SBD,M
Boys,82.1,10,Ben Bowman,San Angelo Central,75.02,161.03,95.25,176.9,433.18,Single-ply,SBD,M
Boys,82.1,11,Alex Garcia #1,Sweetwater,75.02,163.29,79.38,185.97,428.64,Single-ply,SBD,M
Boys,74.84,12,Braylan Brooks,Graham,72.12,129.27,79.38,149.69,358.34,Single-ply,SBD,M
Boys,74.84,13,Devon Freeman,Roscoe,74.39,136.08,81.65,140.61,358.34,Single-ply,SBD,M
Boys,74.84,14,Michael Elmore,Graham,69.94,129.27,95.25,129.27,353.8,Single-ply,SBD,M
Boys,74.84,15,Alex Boswell,Merkel,67.86,142.88,58.97,145.15,347,Single-ply,SBD,M
Boys,74.84,16,Sebastian Martelli,Hawley,68.86,113.4,52.16,,165.56,Single-ply,SB,M
Boys,74.84,DQ,Chino Gallegos,Roscoe,74.84,,,,,Single-ply,SB,M
Boys,74.84,DQ,Bailey DeViney #2,Early,74.84,,,,,Single-ply,SB,M
Boys,74.84,DQ,Zach Taylor,Merkel,73.21,210.92,,,,Single-ply,SB,M
Boys,82.1,DQ,Kaleb Griffin,Hawley,74.93,140.61,,,,Single-ply,SB,M
Boys,82.1,1,Brad Wills,Clyde,81.65,226.8,147.42,222.26,596.47,Single-ply,SBD,M
Boys,82.1,2,Johnny Davis,Clyde,77.93,197.31,122.47,217.72,537.51,Single-ply,SBD,M
Boys,82.1,3,Taylor Bailey,Abilene Cooper,80.47,195.04,124.74,181.44,501.22,Single-ply,SBD,M
Boys,82.1,4,Nick Rodriguez #4,Post,77.2,197.31,124.74,176.9,498.95,Single-ply,SBD,M
Boys,82.1,5,Michael Felton,Big Spring,80.74,197.31,113.4,183.7,494.42,Single-ply,SBD,M
Boys,82.1,6,Anthony Garcia,Big Spring,76.93,190.51,127.01,161.03,478.54,Single-ply,SBD,M
Boys,82.1,7,Max Zetzman,Sweetwater,80.33,158.76,120.2,185.97,464.93,Single-ply,SBD,M
Boys,82.1,8,Maurico Valdez,San Angelo Lake View,81.19,179.17,95.25,181.44,455.86,Single-ply,SBD,M
Boys,82.1,9,Cody Buczyna,Merkel,77.75,188.24,92.99,158.76,439.98,Single-ply,SBD,M
Boys,82.1,10,Matt Hummingbird,San Angelo Lake View,80.01,136.08,99.79,204.12,439.98,Single-ply,SBD,M
Boys,82.1,11,Skyler O'Donald,Clyde,78.65,147.42,120.2,170.1,437.72,Single-ply,SBD,M
Boys,82.1,12,Peyton Rodriquez,Coahoma,81.92,140.61,90.72,181.44,412.77,Single-ply,SBD,M
Boys,82.1,13,William Varela,Snyder,79.38,156.49,97.52,151.95,405.97,Single-ply,SBD,M
Boys,82.1,14,Dalton Smith,Graham,76.66,115.67,92.99,172.37,381.02,Single-ply,SBD,M
Boys,82.1,15,Josh Whitley,Snyder,78.2,133.81,81.65,147.42,362.87,Single-ply,SBD,M
Boys,82.1,16,Clancy Manuel,Hawley,76.75,99.79,97.52,145.15,342.46,Single-ply,SBD,M
Boys,82.1,DQ,Richard Keaton,Coahoma,82.1,,,,,Single-ply,SBD,M
Boys,82.1,DQ,Jeff Early,Clyde,82.1,,,,,Single-ply,SBD,M
Boys,82.1,DQ,Dustin Griffin,Hawley,77.2,,,,,Single-ply,SBD,M
Boys,82.1,DQ,Landon Jones,Roscoe,76.66,147.42,,,,Single-ply,SBD,M
Boys,82.1,DQ,Kyle Lambert,Sweetwater,80.56,,,,,Single-ply,SBD,M
Boys,82.1,DQ,Conrad Duran,San Angelo Lake View,81.1,190.51,,,,Single-ply,SBD,M
Boys,89.81,1,Jacob Borrego,Abilene Cooper,86.91,199.58,122.47,197.31,519.36,Single-ply,SBD,M
Boys,89.81,2,Aaron Allen #2,San Angelo Lake View,88.63,199.58,97.52,213.19,510.29,Single-ply,SBD,M
Boys,89.81,3,Nic Garcia,Abilene Cooper,83.82,185.97,124.74,195.04,505.76,Single-ply,SBD,M
Boys,89.81,4,Austin Martinez,Abilene Cooper,87.18,192.78,108.86,199.58,501.22,Single-ply,SBD,M
Boys,89.81,5,Tanner Fannin,Clyde,83.82,188.24,102.06,201.85,492.15,Single-ply,SBD,M
Boys,89.81,6,Jeret Smith,Abilene,88.09,195.04,92.99,204.12,492.15,Single-ply,SBD,M
Boys,89.81,7,Justin Goble,Clyde,84.73,192.78,106.59,188.24,487.61,Single-ply,SBD,M
Boys,89.81,8,Brady Odom,Abilene,88.27,190.51,92.99,197.31,480.81,Single-ply,SBD,M
Boys,89.81,9,Jerod Daniel,Abilene,88.54,195.04,108.86,176.9,480.81,Single-ply,SBD,M
Boys,89.81,10,Steven Lugo,Abilene Cooper,88.72,179.17,104.33,192.78,476.27,Single-ply,SBD,M
Boys,89.81,11,Nick Adams,Cross Plains,84.37,183.7,115.67,174.63,474,Single-ply,SBD,M
Boys,89.81,12,Cory Burns,Sweetwater,89.45,167.83,106.59,188.24,462.66,Single-ply,SBD,M
Boys,99.79,13,Mikel Shaffer,San Angelo Lake View,89.99,197.31,90.72,174.63,462.66,Single-ply,SBD,M
Boys,89.81,14,Francisco Hernandez,Abilene,85.46,167.83,108.86,174.63,451.32,Single-ply,SBD,M
Boys,89.81,15,Austin Turner #4,San Angelo Lake View,87,154.22,115.67,179.17,449.06,Single-ply,SBD,M
Boys,89.81,16,Robert Contreras,Post,89.09,192.78,104.33,149.69,446.79,Single-ply,SBD,M
Boys,89.81,17,Spencer Young,Sweetwater,84.41,154.22,99.79,188.24,442.25,Single-ply,SBD,M
Boys,89.81,18,Devin Daume,Graham,88.45,136.08,99.79,163.29,399.16,Single-ply,SBD,M
Boys,89.81,19,Paul Martinez,Post,83.55,156.49,86.18,136.08,378.75,Single-ply,SBD,M
Boys,89.81,DQ,Danny Hernandez,Graham,89.81,,,,,Single-ply,SBD,M
Boys,89.81,DQ,Austin Sellers,Hawley,89.81,,,,,Single-ply,SBD,M
Boys,89.81,DQ,Corey Hatcher,Roscoe,89.81,,,,,Single-ply,SBD,M
Boys,89.81,DQ,Jordan Aguilar,Post,83.46,176.9,92.99,,,Single-ply,SBD,M
Boys,89.81,DQ,Trey Shelton,Hawley,87.09,181.44,,,,Single-ply,SBD,M
Boys,89.81,DQ,Chris Harrison,Graham,83.19,170.1,120.2,,,Single-ply,SBD,M
Boys,89.81,DQ,Clay Harrison,Graham,82.64,161.03,,,,Single-ply,SBD,M
Boys,89.81,DQ,Hunter Johnson #1,Sweetwater,89.81,,,,,Single-ply,SBD,M
Boys,99.79,1,John Chappa,San Angelo Central,98.88,267.62,167.83,258.55,694,Single-ply,SBD,M
Boys,109.77,2,Derrick Anderson,Big Spring,99.88,278.96,163.29,251.74,694,Single-ply,SBD,M
Boys,99.79,3,Rhett Lawrence,Clyde,98.61,215.46,154.22,208.65,578.33,Single-ply,SBD,M
Boys,99.79,4,Marcus Agundis,San Angelo Lake View,96.25,222.26,111.13,226.8,560.19,Single-ply,SBD,M
Boys,109.77,5,Mateo Gonzales,Sweetwater,99.97,206.38,133.81,204.12,544.31,Single-ply,SBD,M
Boys,99.79,6,Robert Roman,San Angelo Lake View,98.79,215.46,113.4,199.58,528.44,Single-ply,SBD,M
Boys,99.79,7,Chris Horton,Abilene,93.35,199.58,106.59,204.12,510.29,Single-ply,SBD,M
Boys,99.79,8,Zack Martinez,Tuscola Jim Ned,94.98,208.65,124.74,176.9,510.29,Single-ply,SBD,M
Boys,99.79,9,Austin Thomas,Cross Plains,96.25,197.31,117.93,190.51,505.76,Single-ply,SBD,M
Boys,99.79,10,Jacob Martinez #12,Abilene,95.62,190.51,108.86,204.12,503.49,Single-ply,SBD,M
Boys,99.79,11,Chad Easley,Clyde,95.62,192.78,120.2,167.83,480.81,Single-ply,SBD,M
Boys,99.79,12,Jake Gonzales,Stamford,91.9,183.7,97.52,165.56,446.79,Single-ply,SBD,M
Boys,99.79,13,Max Saxon,Clyde,92.99,158.76,104.33,176.9,439.98,Single-ply,SBD,M
Boys,109.77,14,Devin Woodard,Clyde,99.97,151.95,115.67,158.76,426.38,Single-ply,SBD,M
Boys,99.79,15,Kj McFadden,Merkel,94.98,179.17,79.38,163.29,421.84,Single-ply,SBD,M
Boys,99.79,16,Chris Garza #4,Snyder,94.8,161.03,104.33,151.95,417.3,Single-ply,SBD,M
Boys,99.79,17,Terry Huff,Clyde,98.52,147.42,97.52,158.76,403.7,Single-ply,SBD,M
Boys,99.79,18,Devin Robertson,Hamlin,97.52,158.76,97.52,,256.28,Single-ply,SB,M
Boys,99.79,DQ,Austin Tucker,San Angelo Central,99.79,,,,,Single-ply,SB,M
Boys,99.79,DQ,David Darling,Roscoe,99.79,,,,,Single-ply,SB,M
Boys,99.79,DQ,Jordan Tippens,Snyder,99.16,179.17,115.67,,,Single-ply,SB,M
Boys,99.79,DQ,Jason Gann,Tuscola Jim Ned,92.62,165.56,,,,Single-ply,SB,M
Boys,109.77,1,Robert Martinez,San Angelo Central,106.05,263.08,131.54,215.46,610.08,Single-ply,SBD,M
Boys,109.77,2,DeVaughntae Norman,Stamford,103.42,235.87,122.47,215.46,573.79,Single-ply,SBD,M
Boys,109.77,3,Jose Escamilla,Abilene Cooper,107.05,222.26,120.2,208.65,551.11,Single-ply,SBD,M
Boys,109.77,4,Daniel Montez,Sweetwater,105.87,204.12,138.35,204.12,546.58,Single-ply,SBD,M
Boys,109.77,5,Dale Diaz,Post,105.41,233.6,102.06,167.83,503.49,Single-ply,SBD,M
Boys,109.77,6,Cj Casas,Snyder,109.41,195.04,113.4,188.24,496.68,Single-ply,SBD,M
Boys,109.77,7,Zach Pfluger,San Angelo Central,103.51,208.65,113.4,151.95,474,Single-ply,SBD,M
Boys,109.77,8,Hunter Golden,Graham,102.24,181.44,106.59,183.7,471.74,Single-ply,SBD,M
Boys,109.77,9,Roy Alaniz,Stamford,100.52,183.7,95.25,170.1,449.06,Single-ply,SBD,M
Boys,124.74,10,David Lyall,Hawley,109.95,151.95,79.38,142.88,374.21,Single-ply,SBD,M
Boys,109.77,DQ,Joe Menjares,Post,103.42,,,,,Single-ply,SBD,M
Boys,109.77,DQ,Max Macik,Coahoma,109.77,,,,,Single-ply,SBD,M
Boys,109.77,DQ,Cory Armstrong,Abilene Cooper,107.05,,,,,Single-ply,SBD,M
Boys,109.77,DQ,Brenon Moore,Roscoe,109.77,,,,,Single-ply,SBD,M
Boys,109.77,DQ,Coey Langston,Hamlin,104.51,176.9,,,,Single-ply,SBD,M
Boys,124.74,1,Justin Yanez,Big Spring,113.04,249.48,149.69,208.65,607.81,Single-ply,SBD,M
Boys,124.74,2,Stephan Molinas,Abilene,114.4,247.21,133.81,204.12,585.13,Single-ply,SBD,M
Boys,124.74,3,Pernell Parker,Big Spring,114.85,231.33,133.81,219.99,585.13,Single-ply,SBD,M
Boys,124.74,4,Brayden Newcom,Hawley,118.93,222.26,124.74,226.8,573.79,Single-ply,SBD,M
Boys,124.74,5,Ben Kittley,Abilene,113.85,242.67,129.27,181.44,553.38,Single-ply,SBD,M
Boys,124.74,6,John Flores,Rotan,112.58,192.78,111.13,181.44,485.34,Single-ply,SBD,M
Boys,124.74,7,Dustin Fontana,Coahoma,111.04,188.24,92.99,185.97,467.2,Single-ply,SBD,M
Boys,124.74,8,Marty Villanueva,Stamford,122.11,188.24,124.74,154.22,467.2,Single-ply,SBD,M
Boys,124.74,9,Chase Saunders,Roscoe,118.48,172.37,106.59,170.1,449.06,Single-ply,SBD,M
Boys,124.74+,10,Nick Gauna,Sweetwater,124.92,170.1,83.91,158.76,412.77,Single-ply,SBD,M
Boys,124.74,DQ,Leonard Riggs,San Angelo Lake View,124.74,,,,,Single-ply,SBD,M
Boys,124.74,DQ,Dillon Harden,Graham,124.74,,,,,Single-ply,SBD,M
Boys,124.74,DQ,Jeremy Simons,Hawley,124.74,,,,,Single-ply,SBD,M
Boys,124.74+,1,Cuddy Giddings,Merkel,133.99,260.82,181.44,240.4,682.66,Single-ply,SBD,M
Boys,124.74+,2,Dylan Early,Snyder,134.44,238.14,145.15,229.06,612.35,Single-ply,SBD,M
Boys,124.74+,3,Jordan Stevenson,Abilene Cooper,127.82,258.55,115.67,235.87,610.08,Single-ply,SBD,M
Boys,124.74+,4,Anthony Flores,Abilene,129.36,242.67,151.95,201.85,596.47,Single-ply,SBD,M
Boys,124.74+,5,Chris Hardesty,Hawley,125.37,235.87,113.4,226.8,576.06,Single-ply,SBD,M
Boys,124.74+,6,Devon Davis-Locke,Big Spring,126.28,226.8,151.95,192.78,571.53,Single-ply,SBD,M
Boys,124.74+,7,Hunter Crowder,Tuscola Jim Ned,156.85,226.8,142.88,195.04,564.72,Single-ply,SBD,M
Boys,124.74+,8,Sheldon Wilson,San Angelo Central,145.6,199.58,136.08,197.31,532.97,Single-ply,SBD,M
Boys,124.74+,9,Josh Garcia #5,Clyde,125.46,199.58,147.42,174.63,521.63,Single-ply,SBD,M
Boys,124.74+,10,Hayden Vinson,San Angelo Central,132.54,192.78,104.33,183.7,480.81,Single-ply,SBD,M
Boys,124.74+,11,Ray Knighton,Clyde,180.98,181.44,97.52,147.42,426.38,Single-ply,SBD,M
Boys,124.74+,12,Mike Villreal,Coahoma,159.3,181.44,86.18,147.42,415.04,Single-ply,SBD,M
Boys,124.74+,DQ,Jonathan Molina,Big Spring,131.54,,,,,Single-ply,SBD,M
Boys,124.74+,DQ,Sawyer Roberts,Big Spring,134.72,,,,,Single-ply,SBD,M
